^D:\XSCRIPT\PROJECTS\TESTINI3\.BUILD\SOURCES\CPP\SRC\LANGUAGES\PYTHON\PYTHONBACKEND.CPP
D:\XSCRIPT\PROJECTS\TESTINI3\.BUILD\SOURCES\CPP\SRC\LANGUAGES\PYTHON\PYTHONBACKEND.H
D:\XSCRIPT\PROJECTS\TESTINI3\.BUILD\SOURCES\CPP\SRC\LANGUAGES\BACKENDINTERFACE.H
D:\MICROSOFT VISUAL STUDIO19\VC\TOOLS\MSVC\14.24.28314\INCLUDE\STRING
D:\MICROSOFT VISUAL STUDIO19\VC\TOOLS\MSVC\14.24.28314\INCLUDE\YVALS_CORE.H
D:\MICROSOFT VISUAL STUDIO19\VC\TOOLS\MSVC\14.24.28314\INCLUDE\VCRUNTIME.H
D:\MICROSOFT VISUAL STUDIO19\VC\TOOLS\MSVC\14.24.28314\INCLUDE\SAL.H
D:\MICROSOFT VISUAL STUDIO19\VC\TOOLS\MSVC\14.24.28314\INCLUDE\CONCURRENCYSAL.H
D:\MICROSOFT VISUAL STUDIO19\VC\TOOLS\MSVC\14.24.28314\INCLUDE\VADEFS.H
D:\MICROSOFT VISUAL STUDIO19\VC\TOOLS\MSVC\14.24.28314\INCLUDE\XKEYCHECK.H
D:\MICROSOFT VISUAL STUDIO19\VC\TOOLS\MSVC\14.24.28314\INCLUDE\XSTRING
D:\MICROSOFT VISUAL STUDIO19\VC\TOOLS\MSVC\14.24.28314\INCLUDE\IOSFWD
D:\MICROSOFT VISUAL STUDIO19\VC\TOOLS\MSVC\14.24.28314\INCLUDE\YVALS.H
D:\WINDOWS KITS\10\INCLUDE\10.0.18362.0\UCRT\CRTDBG.H
D:\WINDOWS KITS\10\INCLUDE\10.0.18362.0\UCRT\CORECRT.H
D:\MICROSOFT VISUAL STUDIO19\VC\TOOLS\MSVC\14.24.28314\INCLUDE\VCRUNTIME_NEW_DEBUG.H
D:\MICROSOFT VISUAL STUDIO19\VC\TOOLS\MSVC\14.24.28314\INCLUDE\VCRUNTIME_NEW.H
D:\MICROSOFT VISUAL STUDIO19\VC\TOOLS\MSVC\14.24.28314\INCLUDE\CRTDEFS.H
D:\MICROSOFT VISUAL STUDIO19\VC\TOOLS\MSVC\14.24.28314\INCLUDE\USE_ANSI.H
D:\MICROSOFT VISUAL STUDIO19\VC\TOOLS\MSVC\14.24.28314\INCLUDE\CSTDIO
D:\WINDOWS KITS\10\INCLUDE\10.0.18362.0\UCRT\STDIO.H
D:\WINDOWS KITS\10\INCLUDE\10.0.18362.0\UCRT\CORECRT_WSTDIO.H
D:\WINDOWS KITS\10\INCLUDE\10.0.18362.0\UCRT\CORECRT_STDIO_CONFIG.H
D:\MICROSOFT VISUAL STUDIO19\VC\TOOLS\MSVC\14.24.28314\INCLUDE\CSTRING
D:\WINDOWS KITS\10\INCLUDE\10.0.18362.0\UCRT\STRING.H
D:\WINDOWS KITS\10\INCLUDE\10.0.18362.0\UCRT\CORECRT_MEMORY.H
D:\WINDOWS KITS\10\INCLUDE\10.0.18362.0\UCRT\CORECRT_MEMCPY_S.H
D:\WINDOWS KITS\10\INCLUDE\10.0.18362.0\UCRT\ERRNO.H
D:\MICROSOFT VISUAL STUDIO19\VC\TOOLS\MSVC\14.24.28314\INCLUDE\VCRUNTIME_STRING.H
D:\WINDOWS KITS\10\INCLUDE\10.0.18362.0\UCRT\CORECRT_WSTRING.H
D:\MICROSOFT VISUAL STUDIO19\VC\TOOLS\MSVC\14.24.28314\INCLUDE\CWCHAR
D:\WINDOWS KITS\10\INCLUDE\10.0.18362.0\UCRT\WCHAR.H
D:\WINDOWS KITS\10\INCLUDE\10.0.18362.0\UCRT\CORECRT_WCONIO.H
D:\WINDOWS KITS\10\INCLUDE\10.0.18362.0\UCRT\CORECRT_WCTYPE.H
D:\WINDOWS KITS\10\INCLUDE\10.0.18362.0\UCRT\CORECRT_WDIRECT.H
D:\WINDOWS KITS\10\INCLUDE\10.0.18362.0\UCRT\CORECRT_WIO.H
D:\WINDOWS KITS\10\INCLUDE\10.0.18362.0\UCRT\CORECRT_SHARE.H
D:\WINDOWS KITS\10\INCLUDE\10.0.18362.0\UCRT\CORECRT_WPROCESS.H
D:\WINDOWS KITS\10\INCLUDE\10.0.18362.0\UCRT\CORECRT_WSTDLIB.H
D:\WINDOWS KITS\10\INCLUDE\10.0.18362.0\UCRT\CORECRT_WTIME.H
D:\WINDOWS KITS\10\INCLUDE\10.0.18362.0\UCRT\SYS\STAT.H
D:\WINDOWS KITS\10\INCLUDE\10.0.18362.0\UCRT\SYS\TYPES.H
D:\MICROSOFT VISUAL STUDIO19\VC\TOOLS\MSVC\14.24.28314\INCLUDE\XSTDDEF
D:\MICROSOFT VISUAL STUDIO19\VC\TOOLS\MSVC\14.24.28314\INCLUDE\CSTDDEF
D:\WINDOWS KITS\10\INCLUDE\10.0.18362.0\UCRT\STDDEF.H
D:\MICROSOFT VISUAL STUDIO19\VC\TOOLS\MSVC\14.24.28314\INCLUDE\XTR1COMMON
D:\MICROSOFT VISUAL STUDIO19\VC\TOOLS\MSVC\14.24.28314\INCLUDE\CSTDLIB
D:\WINDOWS KITS\10\INCLUDE\10.0.18362.0\UCRT\MATH.H
D:\WINDOWS KITS\10\INCLUDE\10.0.18362.0\UCRT\CORECRT_MATH.H
D:\WINDOWS KITS\10\INCLUDE\10.0.18362.0\UCRT\STDLIB.H
D:\WINDOWS KITS\10\INCLUDE\10.0.18362.0\UCRT\CORECRT_MALLOC.H
D:\WINDOWS KITS\10\INCLUDE\10.0.18362.0\UCRT\CORECRT_SEARCH.H
D:\MICROSOFT VISUAL STUDIO19\VC\TOOLS\MSVC\14.24.28314\INCLUDE\LIMITS.H
D:\MICROSOFT VISUAL STUDIO19\VC\TOOLS\MSVC\14.24.28314\INCLUDE\INITIALIZER_LIST
D:\MICROSOFT VISUAL STUDIO19\VC\TOOLS\MSVC\14.24.28314\INCLUDE\XMEMORY
D:\MICROSOFT VISUAL STUDIO19\VC\TOOLS\MSVC\14.24.28314\INCLUDE\CSTDINT
D:\MICROSOFT VISUAL STUDIO19\VC\TOOLS\MSVC\14.24.28314\INCLUDE\STDINT.H
D:\MICROSOFT VISUAL STUDIO19\VC\TOOLS\MSVC\14.24.28314\INCLUDE\LIMITS
D:\MICROSOFT VISUAL STUDIO19\VC\TOOLS\MSVC\14.24.28314\INCLUDE\CFLOAT
D:\WINDOWS KITS\10\INCLUDE\10.0.18362.0\UCRT\FLOAT.H
D:\MICROSOFT VISUAL STUDIO19\VC\TOOLS\MSVC\14.24.28314\INCLUDE\CLIMITS
D:\MICROSOFT VISUAL STUDIO19\VC\TOOLS\MSVC\14.24.28314\INCLUDE\NEW
D:\MICROSOFT VISUAL STUDIO19\VC\TOOLS\MSVC\14.24.28314\INCLUDE\EXCEPTION
D:\MICROSOFT VISUAL STUDIO19\VC\TOOLS\MSVC\14.24.28314\INCLUDE\TYPE_TRAITS
D:\WINDOWS KITS\10\INCLUDE\10.0.18362.0\UCRT\MALLOC.H
D:\MICROSOFT VISUAL STUDIO19\VC\TOOLS\MSVC\14.24.28314\INCLUDE\VCRUNTIME_EXCEPTION.H
D:\MICROSOFT VISUAL STUDIO19\VC\TOOLS\MSVC\14.24.28314\INCLUDE\EH.H
D:\WINDOWS KITS\10\INCLUDE\10.0.18362.0\UCRT\CORECRT_TERMINATE.H
D:\MICROSOFT VISUAL STUDIO19\VC\TOOLS\MSVC\14.24.28314\INCLUDE\XATOMIC.H
D:\MICROSOFT VISUAL STUDIO19\VC\TOOLS\MSVC\14.24.28314\INCLUDE\INTRIN0.H
D:\MICROSOFT VISUAL STUDIO19\VC\TOOLS\MSVC\14.24.28314\INCLUDE\XUTILITY
D:\MICROSOFT VISUAL STUDIO19\VC\TOOLS\MSVC\14.24.28314\INCLUDE\UTILITY
D:\MICROSOFT VISUAL STUDIO19\VC\TOOLS\MSVC\14.24.28314\INCLUDE\XPOLYMORPHIC_ALLOCATOR.H
D:\MICROSOFT VISUAL STUDIO19\VC\TOOLS\MSVC\14.24.28314\INCLUDE\TUPLE
D:\MICROSOFT VISUAL STUDIO19\VC\TOOLS\MSVC\14.24.28314\INCLUDE\CCTYPE
D:\WINDOWS KITS\10\INCLUDE\10.0.18362.0\UCRT\CTYPE.H
D:\XSCRIPT\PROJECTS\TESTINI3\.BUILD\SOURCES\CPP\SRC\UTILITY\MEMORY.H
D:\MICROSOFT VISUAL STUDIO19\VC\TOOLS\MSVC\14.24.28314\INCLUDE\ATOMIC
D:\XSCRIPT\PROJECTS\TESTINI3\.BUILD\SOURCES\CPP\INCLUDE\PYBIND11\PYBIND11.H
D:\XSCRIPT\PROJECTS\TESTINI3\.BUILD\SOURCES\CPP\INCLUDE\PYBIND11\ATTR.H
D:\XSCRIPT\PROJECTS\TESTINI3\.BUILD\SOURCES\CPP\INCLUDE\PYBIND11\CAST.H
D:\XSCRIPT\PROJECTS\TESTINI3\.BUILD\SOURCES\CPP\INCLUDE\PYBIND11\PYTYPES.H
D:\XSCRIPT\PROJECTS\TESTINI3\.BUILD\SOURCES\CPP\INCLUDE\PYBIND11\DETAIL\COMMON.H
D:\XSCRIPT\PROJECTS\TESTINI3\.BUILD\SOURCES\CPP\INCLUDE\PYTHON.H
D:\XSCRIPT\PROJECTS\TESTINI3\.BUILD\SOURCES\CPP\INCLUDE\PATCHLEVEL.H
D:\XSCRIPT\PROJECTS\TESTINI3\.BUILD\SOURCES\CPP\INCLUDE\PYCONFIG.H
D:\WINDOWS KITS\10\INCLUDE\10.0.18362.0\UCRT\IO.H
D:\WINDOWS KITS\10\INCLUDE\10.0.18362.0\UCRT\CORECRT_IO.H
D:\WINDOWS KITS\10\INCLUDE\10.0.18362.0\SHARED\BASETSD.H
D:\XSCRIPT\PROJECTS\TESTINI3\.BUILD\SOURCES\CPP\INCLUDE\PYMACCONFIG.H
D:\WINDOWS KITS\10\INCLUDE\10.0.18362.0\UCRT\ASSERT.H
D:\XSCRIPT\PROJECTS\TESTINI3\.BUILD\SOURCES\CPP\INCLUDE\PYPORT.H
D:\WINDOWS KITS\10\INCLUDE\10.0.18362.0\UCRT\INTTYPES.H
D:\WINDOWS KITS\10\INCLUDE\10.0.18362.0\UCRT\TIME.H
D:\XSCRIPT\PROJECTS\TESTINI3\.BUILD\SOURCES\CPP\INCLUDE\PYMACRO.H
D:\XSCRIPT\PROJECTS\TESTINI3\.BUILD\SOURCES\CPP\INCLUDE\PYMATH.H
D:\XSCRIPT\PROJECTS\TESTINI3\.BUILD\SOURCES\CPP\INCLUDE\PYTIME.H
D:\XSCRIPT\PROJECTS\TESTINI3\.BUILD\SOURCES\CPP\INCLUDE\OBJECT.H
D:\XSCRIPT\PROJECTS\TESTINI3\.BUILD\SOURCES\CPP\INCLUDE\PYMEM.H
D:\XSCRIPT\PROJECTS\TESTINI3\.BUILD\SOURCES\CPP\INCLUDE\CPYTHON\PYMEM.H
D:\XSCRIPT\PROJECTS\TESTINI3\.BUILD\SOURCES\CPP\INCLUDE\CPYTHON\OBJECT.H
D:\XSCRIPT\PROJECTS\TESTINI3\.BUILD\SOURCES\CPP\INCLUDE\OBJIMPL.H
D:\XSCRIPT\PROJECTS\TESTINI3\.BUILD\SOURCES\CPP\INCLUDE\CPYTHON\OBJIMPL.H
D:\XSCRIPT\PROJECTS\TESTINI3\.BUILD\SOURCES\CPP\INCLUDE\TYPESLOTS.H
D:\XSCRIPT\PROJECTS\TESTINI3\.BUILD\SOURCES\CPP\INCLUDE\PYHASH.H
D:\XSCRIPT\PROJECTS\TESTINI3\.BUILD\SOURCES\CPP\INCLUDE\PYDEBUG.H
D:\XSCRIPT\PROJECTS\TESTINI3\.BUILD\SOURCES\CPP\INCLUDE\BYTEARRAYOBJECT.H
D:\MICROSOFT VISUAL STUDIO19\VC\TOOLS\MSVC\14.24.28314\INCLUDE\STDARG.H
D:\XSCRIPT\PROJECTS\TESTINI3\.BUILD\SOURCES\CPP\INCLUDE\BYTESOBJECT.H
D:\XSCRIPT\PROJECTS\TESTINI3\.BUILD\SOURCES\CPP\INCLUDE\UNICODEOBJECT.H
D:\XSCRIPT\PROJECTS\TESTINI3\.BUILD\SOURCES\CPP\INCLUDE\CPYTHON\UNICODEOBJECT.H
D:\XSCRIPT\PROJECTS\TESTINI3\.BUILD\SOURCES\CPP\INCLUDE\LONGOBJECT.H
D:\XSCRIPT\PROJECTS\TESTINI3\.BUILD\SOURCES\CPP\INCLUDE\LONGINTREPR.H
D:\XSCRIPT\PROJECTS\TESTINI3\.BUILD\SOURCES\CPP\INCLUDE\BOOLOBJECT.H
D:\XSCRIPT\PROJECTS\TESTINI3\.BUILD\SOURCES\CPP\INCLUDE\FLOATOBJECT.H
D:\XSCRIPT\PROJECTS\TESTINI3\.BUILD\SOURCES\CPP\INCLUDE\COMPLEXOBJECT.H
D:\XSCRIPT\PROJECTS\TESTINI3\.BUILD\SOURCES\CPP\INCLUDE\RANGEOBJECT.H
D:\XSCRIPT\PROJECTS\TESTINI3\.BUILD\SOURCES\CPP\INCLUDE\MEMORYOBJECT.H
D:\XSCRIPT\PROJECTS\TESTINI3\.BUILD\SOURCES\CPP\INCLUDE\TUPLEOBJECT.H
D:\XSCRIPT\PROJECTS\TESTINI3\.BUILD\SOURCES\CPP\INCLUDE\CPYTHON\TUPLEOBJECT.H
D:\XSCRIPT\PROJECTS\TESTINI3\.BUILD\SOURCES\CPP\INCLUDE\LISTOBJECT.H
D:\XSCRIPT\PROJECTS\TESTINI3\.BUILD\SOURCES\CPP\INCLUDE\DICTOBJECT.H
D:\XSCRIPT\PROJECTS\TESTINI3\.BUILD\SOURCES\CPP\INCLUDE\CPYTHON\DICTOBJECT.H
D:\XSCRIPT\PROJECTS\TESTINI3\.BUILD\SOURCES\CPP\INCLUDE\ODICTOBJECT.H
D:\XSCRIPT\PROJECTS\TESTINI3\.BUILD\SOURCES\CPP\INCLUDE\ENUMOBJECT.H
D:\XSCRIPT\PROJECTS\TESTINI3\.BUILD\SOURCES\CPP\INCLUDE\SETOBJECT.H
D:\XSCRIPT\PROJECTS\TESTINI3\.BUILD\SOURCES\CPP\INCLUDE\METHODOBJECT.H
D:\XSCRIPT\PROJECTS\TESTINI3\.BUILD\SOURCES\CPP\INCLUDE\MODULEOBJECT.H
D:\XSCRIPT\PROJECTS\TESTINI3\.BUILD\SOURCES\CPP\INCLUDE\FUNCOBJECT.H
D:\XSCRIPT\PROJECTS\TESTINI3\.BUILD\SOURCES\CPP\INCLUDE\CLASSOBJECT.H
D:\XSCRIPT\PROJECTS\TESTINI3\.BUILD\SOURCES\CPP\INCLUDE\FILEOBJECT.H
D:\XSCRIPT\PROJECTS\TESTINI3\.BUILD\SOURCES\CPP\INCLUDE\CPYTHON\FILEOBJECT.H
D:\XSCRIPT\PROJECTS\TESTINI3\.BUILD\SOURCES\CPP\INCLUDE\PYCAPSULE.H
D:\XSCRIPT\PROJECTS\TESTINI3\.BUILD\SOURCES\CPP\INCLUDE\TRACEBACK.H
D:\XSCRIPT\PROJECTS\TESTINI3\.BUILD\SOURCES\CPP\INCLUDE\CPYTHON\TRACEBACK.H
D:\XSCRIPT\PROJECTS\TESTINI3\.BUILD\SOURCES\CPP\INCLUDE\SLICEOBJECT.H
D:\XSCRIPT\PROJECTS\TESTINI3\.BUILD\SOURCES\CPP\INCLUDE\CELLOBJECT.H
D:\XSCRIPT\PROJECTS\TESTINI3\.BUILD\SOURCES\CPP\INCLUDE\ITEROBJECT.H
D:\XSCRIPT\PROJECTS\TESTINI3\.BUILD\SOURCES\CPP\INCLUDE\GENOBJECT.H
D:\XSCRIPT\PROJECTS\TESTINI3\.BUILD\SOURCES\CPP\INCLUDE\PYSTATE.H
D:\XSCRIPT\PROJECTS\TESTINI3\.BUILD\SOURCES\CPP\INCLUDE\PYTHREAD.H
D:\XSCRIPT\PROJECTS\TESTINI3\.BUILD\SOURCES\CPP\INCLUDE\CPYTHON\PYSTATE.H
D:\XSCRIPT\PROJECTS\TESTINI3\.BUILD\SOURCES\CPP\INCLUDE\CPYTHON\INITCONFIG.H
D:\XSCRIPT\PROJECTS\TESTINI3\.BUILD\SOURCES\CPP\INCLUDE\DESCROBJECT.H
D:\XSCRIPT\PROJECTS\TESTINI3\.BUILD\SOURCES\CPP\INCLUDE\WARNINGS.H
D:\XSCRIPT\PROJECTS\TESTINI3\.BUILD\SOURCES\CPP\INCLUDE\WEAKREFOBJECT.H
D:\XSCRIPT\PROJECTS\TESTINI3\.BUILD\SOURCES\CPP\INCLUDE\STRUCTSEQ.H
D:\XSCRIPT\PROJECTS\TESTINI3\.BUILD\SOURCES\CPP\INCLUDE\NAMESPACEOBJECT.H
D:\XSCRIPT\PROJECTS\TESTINI3\.BUILD\SOURCES\CPP\INCLUDE\PICKLEBUFOBJECT.H
D:\XSCRIPT\PROJECTS\TESTINI3\.BUILD\SOURCES\CPP\INCLUDE\CODECS.H
D:\XSCRIPT\PROJECTS\TESTINI3\.BUILD\SOURCES\CPP\INCLUDE\PYERRORS.H
D:\XSCRIPT\PROJECTS\TESTINI3\.BUILD\SOURCES\CPP\INCLUDE\CPYTHON\PYERRORS.H
D:\XSCRIPT\PROJECTS\TESTINI3\.BUILD\SOURCES\CPP\INCLUDE\CONTEXT.H
D:\XSCRIPT\PROJECTS\TESTINI3\.BUILD\SOURCES\CPP\INCLUDE\PYARENA.H
D:\XSCRIPT\PROJECTS\TESTINI3\.BUILD\SOURCES\CPP\INCLUDE\MODSUPPORT.H
D:\XSCRIPT\PROJECTS\TESTINI3\.BUILD\SOURCES\CPP\INCLUDE\COMPILE.H
D:\XSCRIPT\PROJECTS\TESTINI3\.BUILD\SOURCES\CPP\INCLUDE\CODE.H
D:\XSCRIPT\PROJECTS\TESTINI3\.BUILD\SOURCES\CPP\INCLUDE\PYTHONRUN.H
D:\XSCRIPT\PROJECTS\TESTINI3\.BUILD\SOURCES\CPP\INCLUDE\PYLIFECYCLE.H
D:\XSCRIPT\PROJECTS\TESTINI3\.BUILD\SOURCES\CPP\INCLUDE\CPYTHON\PYLIFECYCLE.H
D:\XSCRIPT\PROJECTS\TESTINI3\.BUILD\SOURCES\CPP\INCLUDE\CEVAL.H
D:\XSCRIPT\PROJECTS\TESTINI3\.BUILD\SOURCES\CPP\INCLUDE\SYSMODULE.H
D:\XSCRIPT\PROJECTS\TESTINI3\.BUILD\SOURCES\CPP\INCLUDE\CPYTHON\SYSMODULE.H
D:\XSCRIPT\PROJECTS\TESTINI3\.BUILD\SOURCES\CPP\INCLUDE\OSMODULE.H
D:\XSCRIPT\PROJECTS\TESTINI3\.BUILD\SOURCES\CPP\INCLUDE\INTRCHECK.H
D:\XSCRIPT\PROJECTS\TESTINI3\.BUILD\SOURCES\CPP\INCLUDE\IMPORT.H
D:\XSCRIPT\PROJECTS\TESTINI3\.BUILD\SOURCES\CPP\INCLUDE\ABSTRACT.H
D:\XSCRIPT\PROJECTS\TESTINI3\.BUILD\SOURCES\CPP\INCLUDE\CPYTHON\ABSTRACT.H
D:\XSCRIPT\PROJECTS\TESTINI3\.BUILD\SOURCES\CPP\INCLUDE\BLTINMODULE.H
D:\XSCRIPT\PROJECTS\TESTINI3\.BUILD\SOURCES\CPP\INCLUDE\EVAL.H
D:\XSCRIPT\PROJECTS\TESTINI3\.BUILD\SOURCES\CPP\INCLUDE\PYCTYPE.H
D:\XSCRIPT\PROJECTS\TESTINI3\.BUILD\SOURCES\CPP\INCLUDE\PYSTRTOD.H
D:\XSCRIPT\PROJECTS\TESTINI3\.BUILD\SOURCES\CPP\INCLUDE\PYSTRCMP.H
D:\XSCRIPT\PROJECTS\TESTINI3\.BUILD\SOURCES\CPP\INCLUDE\DTOA.H
D:\XSCRIPT\PROJECTS\TESTINI3\.BUILD\SOURCES\CPP\INCLUDE\FILEUTILS.H
D:\XSCRIPT\PROJECTS\TESTINI3\.BUILD\SOURCES\CPP\INCLUDE\PYFPE.H
D:\XSCRIPT\PROJECTS\TESTINI3\.BUILD\SOURCES\CPP\INCLUDE\TRACEMALLOC.H
D:\XSCRIPT\PROJECTS\TESTINI3\.BUILD\SOURCES\CPP\INCLUDE\FRAMEOBJECT.H
D:\MICROSOFT VISUAL STUDIO19\VC\TOOLS\MSVC\14.24.28314\INCLUDE\FORWARD_LIST
D:\MICROSOFT VISUAL STUDIO19\VC\TOOLS\MSVC\14.24.28314\INCLUDE\VECTOR
D:\MICROSOFT VISUAL STUDIO19\VC\TOOLS\MSVC\14.24.28314\INCLUDE\STDEXCEPT
D:\MICROSOFT VISUAL STUDIO19\VC\TOOLS\MSVC\14.24.28314\INCLUDE\UNORDERED_SET
D:\MICROSOFT VISUAL STUDIO19\VC\TOOLS\MSVC\14.24.28314\INCLUDE\XHASH
D:\MICROSOFT VISUAL STUDIO19\VC\TOOLS\MSVC\14.24.28314\INCLUDE\CMATH
D:\MICROSOFT VISUAL STUDIO19\VC\TOOLS\MSVC\14.24.28314\INCLUDE\XTGMATH.H
D:\MICROSOFT VISUAL STUDIO19\VC\TOOLS\MSVC\14.24.28314\INCLUDE\LIST
D:\MICROSOFT VISUAL STUDIO19\VC\TOOLS\MSVC\14.24.28314\INCLUDE\XBIT_OPS.H
D:\MICROSOFT VISUAL STUDIO19\VC\TOOLS\MSVC\14.24.28314\INCLUDE\XNODE_HANDLE.H
D:\MICROSOFT VISUAL STUDIO19\VC\TOOLS\MSVC\14.24.28314\INCLUDE\UNORDERED_MAP
D:\MICROSOFT VISUAL STUDIO19\VC\TOOLS\MSVC\14.24.28314\INCLUDE\MEMORY
D:\MICROSOFT VISUAL STUDIO19\VC\TOOLS\MSVC\14.24.28314\INCLUDE\TYPEINFO
D:\MICROSOFT VISUAL STUDIO19\VC\TOOLS\MSVC\14.24.28314\INCLUDE\VCRUNTIME_TYPEINFO.H
D:\MICROSOFT VISUAL STUDIO19\VC\TOOLS\MSVC\14.24.28314\INCLUDE\TYPEINDEX
D:\XSCRIPT\PROJECTS\TESTINI3\.BUILD\SOURCES\CPP\INCLUDE\PYBIND11\BUFFER_INFO.H
D:\XSCRIPT\PROJECTS\TESTINI3\.BUILD\SOURCES\CPP\INCLUDE\PYBIND11\DETAIL\TYPEID.H
D:\XSCRIPT\PROJECTS\TESTINI3\.BUILD\SOURCES\CPP\INCLUDE\PYBIND11\DETAIL\DESCR.H
D:\XSCRIPT\PROJECTS\TESTINI3\.BUILD\SOURCES\CPP\INCLUDE\PYBIND11\DETAIL\INTERNALS.H
D:\MICROSOFT VISUAL STUDIO19\VC\TOOLS\MSVC\14.24.28314\INCLUDE\ARRAY
D:\MICROSOFT VISUAL STUDIO19\VC\TOOLS\MSVC\14.24.28314\INCLUDE\ALGORITHM
D:\MICROSOFT VISUAL STUDIO19\VC\TOOLS\MSVC\14.24.28314\INCLUDE\ITERATOR
D:\MICROSOFT VISUAL STUDIO19\VC\TOOLS\MSVC\14.24.28314\INCLUDE\ISTREAM
D:\MICROSOFT VISUAL STUDIO19\VC\TOOLS\MSVC\14.24.28314\INCLUDE\OSTREAM
D:\MICROSOFT VISUAL STUDIO19\VC\TOOLS\MSVC\14.24.28314\INCLUDE\IOS
D:\MICROSOFT VISUAL STUDIO19\VC\TOOLS\MSVC\14.24.28314\INCLUDE\XLOCNUM
D:\MICROSOFT VISUAL STUDIO19\VC\TOOLS\MSVC\14.24.28314\INCLUDE\STREAMBUF
D:\MICROSOFT VISUAL STUDIO19\VC\TOOLS\MSVC\14.24.28314\INCLUDE\XIOSBASE
D:\WINDOWS KITS\10\INCLUDE\10.0.18362.0\UCRT\SHARE.H
D:\MICROSOFT VISUAL STUDIO19\VC\TOOLS\MSVC\14.24.28314\INCLUDE\SYSTEM_ERROR
D:\MICROSOFT VISUAL STUDIO19\VC\TOOLS\MSVC\14.24.28314\INCLUDE\CERRNO
D:\MICROSOFT VISUAL STUDIO19\VC\TOOLS\MSVC\14.24.28314\INCLUDE\XCALL_ONCE.H
D:\MICROSOFT VISUAL STUDIO19\VC\TOOLS\MSVC\14.24.28314\INCLUDE\XERRC.H
D:\MICROSOFT VISUAL STUDIO19\VC\TOOLS\MSVC\14.24.28314\INCLUDE\XLOCALE
D:\MICROSOFT VISUAL STUDIO19\VC\TOOLS\MSVC\14.24.28314\INCLUDE\XFACET
D:\MICROSOFT VISUAL STUDIO19\VC\TOOLS\MSVC\14.24.28314\INCLUDE\XLOCINFO
D:\MICROSOFT VISUAL STUDIO19\VC\TOOLS\MSVC\14.24.28314\INCLUDE\XLOCINFO.H
D:\WINDOWS KITS\10\INCLUDE\10.0.18362.0\UCRT\LOCALE.H
D:\MICROSOFT VISUAL STUDIO19\VC\TOOLS\MSVC\14.24.28314\INCLUDE\STRING_VIEW
D:\XSCRIPT\PROJECTS\TESTINI3\.BUILD\SOURCES\CPP\INCLUDE\PYBIND11\OPTIONS.H
D:\XSCRIPT\PROJECTS\TESTINI3\.BUILD\SOURCES\CPP\INCLUDE\PYBIND11\DETAIL\CLASS.H
D:\XSCRIPT\PROJECTS\TESTINI3\.BUILD\SOURCES\CPP\INCLUDE\PYBIND11\DETAIL\INIT.H
D:\XSCRIPT\PROJECTS\TESTINI3\.BUILD\SOURCES\CPP\INCLUDE\PYBIND11\EMBED.H
D:\XSCRIPT\PROJECTS\TESTINI3\.BUILD\SOURCES\CPP\INCLUDE\PYBIND11\EVAL.H
^D:\XSCRIPT\PROJECTS\TESTINI3\.BUILD\SOURCES\CPP\SRC\LANGUAGES\RUNTIME.CPP
D:\XSCRIPT\PROJECTS\TESTINI3\.BUILD\SOURCES\CPP\SRC\LANGUAGES\RUNTIME.H
D:\MICROSOFT VISUAL STUDIO19\VC\TOOLS\MSVC\14.24.28314\INCLUDE\UNORDERED_MAP
D:\MICROSOFT VISUAL STUDIO19\VC\TOOLS\MSVC\14.24.28314\INCLUDE\YVALS_CORE.H
D:\MICROSOFT VISUAL STUDIO19\VC\TOOLS\MSVC\14.24.28314\INCLUDE\VCRUNTIME.H
D:\MICROSOFT VISUAL STUDIO19\VC\TOOLS\MSVC\14.24.28314\INCLUDE\SAL.H
D:\MICROSOFT VISUAL STUDIO19\VC\TOOLS\MSVC\14.24.28314\INCLUDE\CONCURRENCYSAL.H
D:\MICROSOFT VISUAL STUDIO19\VC\TOOLS\MSVC\14.24.28314\INCLUDE\VADEFS.H
D:\MICROSOFT VISUAL STUDIO19\VC\TOOLS\MSVC\14.24.28314\INCLUDE\XKEYCHECK.H
D:\MICROSOFT VISUAL STUDIO19\VC\TOOLS\MSVC\14.24.28314\INCLUDE\XHASH
D:\MICROSOFT VISUAL STUDIO19\VC\TOOLS\MSVC\14.24.28314\INCLUDE\CMATH
D:\MICROSOFT VISUAL STUDIO19\VC\TOOLS\MSVC\14.24.28314\INCLUDE\YVALS.H
D:\WINDOWS KITS\10\INCLUDE\10.0.18362.0\UCRT\CRTDBG.H
D:\WINDOWS KITS\10\INCLUDE\10.0.18362.0\UCRT\CORECRT.H
D:\MICROSOFT VISUAL STUDIO19\VC\TOOLS\MSVC\14.24.28314\INCLUDE\VCRUNTIME_NEW_DEBUG.H
D:\MICROSOFT VISUAL STUDIO19\VC\TOOLS\MSVC\14.24.28314\INCLUDE\VCRUNTIME_NEW.H
D:\MICROSOFT VISUAL STUDIO19\VC\TOOLS\MSVC\14.24.28314\INCLUDE\CRTDEFS.H
D:\MICROSOFT VISUAL STUDIO19\VC\TOOLS\MSVC\14.24.28314\INCLUDE\USE_ANSI.H
D:\MICROSOFT VISUAL STUDIO19\VC\TOOLS\MSVC\14.24.28314\INCLUDE\CSTDLIB
D:\WINDOWS KITS\10\INCLUDE\10.0.18362.0\UCRT\MATH.H
D:\WINDOWS KITS\10\INCLUDE\10.0.18362.0\UCRT\CORECRT_MATH.H
D:\WINDOWS KITS\10\INCLUDE\10.0.18362.0\UCRT\STDLIB.H
D:\WINDOWS KITS\10\INCLUDE\10.0.18362.0\UCRT\CORECRT_MALLOC.H
D:\WINDOWS KITS\10\INCLUDE\10.0.18362.0\UCRT\CORECRT_SEARCH.H
D:\WINDOWS KITS\10\INCLUDE\10.0.18362.0\UCRT\STDDEF.H
D:\WINDOWS KITS\10\INCLUDE\10.0.18362.0\UCRT\CORECRT_WSTDLIB.H
D:\MICROSOFT VISUAL STUDIO19\VC\TOOLS\MSVC\14.24.28314\INCLUDE\LIMITS.H
D:\MICROSOFT VISUAL STUDIO19\VC\TOOLS\MSVC\14.24.28314\INCLUDE\XTGMATH.H
D:\MICROSOFT VISUAL STUDIO19\VC\TOOLS\MSVC\14.24.28314\INCLUDE\XTR1COMMON
D:\MICROSOFT VISUAL STUDIO19\VC\TOOLS\MSVC\14.24.28314\INCLUDE\CSTRING
D:\WINDOWS KITS\10\INCLUDE\10.0.18362.0\UCRT\STRING.H
D:\WINDOWS KITS\10\INCLUDE\10.0.18362.0\UCRT\CORECRT_MEMORY.H
D:\WINDOWS KITS\10\INCLUDE\10.0.18362.0\UCRT\CORECRT_MEMCPY_S.H
D:\WINDOWS KITS\10\INCLUDE\10.0.18362.0\UCRT\ERRNO.H
D:\MICROSOFT VISUAL STUDIO19\VC\TOOLS\MSVC\14.24.28314\INCLUDE\VCRUNTIME_STRING.H
D:\WINDOWS KITS\10\INCLUDE\10.0.18362.0\UCRT\CORECRT_WSTRING.H
D:\MICROSOFT VISUAL STUDIO19\VC\TOOLS\MSVC\14.24.28314\INCLUDE\CWCHAR
D:\MICROSOFT VISUAL STUDIO19\VC\TOOLS\MSVC\14.24.28314\INCLUDE\CSTDIO
D:\WINDOWS KITS\10\INCLUDE\10.0.18362.0\UCRT\STDIO.H
D:\WINDOWS KITS\10\INCLUDE\10.0.18362.0\UCRT\CORECRT_WSTDIO.H
D:\WINDOWS KITS\10\INCLUDE\10.0.18362.0\UCRT\CORECRT_STDIO_CONFIG.H
D:\WINDOWS KITS\10\INCLUDE\10.0.18362.0\UCRT\WCHAR.H
D:\WINDOWS KITS\10\INCLUDE\10.0.18362.0\UCRT\CORECRT_WCONIO.H
D:\WINDOWS KITS\10\INCLUDE\10.0.18362.0\UCRT\CORECRT_WCTYPE.H
D:\WINDOWS KITS\10\INCLUDE\10.0.18362.0\UCRT\CORECRT_WDIRECT.H
D:\WINDOWS KITS\10\INCLUDE\10.0.18362.0\UCRT\CORECRT_WIO.H
D:\WINDOWS KITS\10\INCLUDE\10.0.18362.0\UCRT\CORECRT_SHARE.H
D:\WINDOWS KITS\10\INCLUDE\10.0.18362.0\UCRT\CORECRT_WPROCESS.H
D:\WINDOWS KITS\10\INCLUDE\10.0.18362.0\UCRT\CORECRT_WTIME.H
D:\WINDOWS KITS\10\INCLUDE\10.0.18362.0\UCRT\SYS\STAT.H
D:\WINDOWS KITS\10\INCLUDE\10.0.18362.0\UCRT\SYS\TYPES.H
D:\MICROSOFT VISUAL STUDIO19\VC\TOOLS\MSVC\14.24.28314\INCLUDE\LIST
D:\MICROSOFT VISUAL STUDIO19\VC\TOOLS\MSVC\14.24.28314\INCLUDE\XMEMORY
D:\MICROSOFT VISUAL STUDIO19\VC\TOOLS\MSVC\14.24.28314\INCLUDE\CSTDINT
D:\MICROSOFT VISUAL STUDIO19\VC\TOOLS\MSVC\14.24.28314\INCLUDE\STDINT.H
D:\MICROSOFT VISUAL STUDIO19\VC\TOOLS\MSVC\14.24.28314\INCLUDE\LIMITS
D:\MICROSOFT VISUAL STUDIO19\VC\TOOLS\MSVC\14.24.28314\INCLUDE\CFLOAT
D:\WINDOWS KITS\10\INCLUDE\10.0.18362.0\UCRT\FLOAT.H
D:\MICROSOFT VISUAL STUDIO19\VC\TOOLS\MSVC\14.24.28314\INCLUDE\CLIMITS
D:\MICROSOFT VISUAL STUDIO19\VC\TOOLS\MSVC\14.24.28314\INCLUDE\XSTDDEF
D:\MICROSOFT VISUAL STUDIO19\VC\TOOLS\MSVC\14.24.28314\INCLUDE\CSTDDEF
D:\MICROSOFT VISUAL STUDIO19\VC\TOOLS\MSVC\14.24.28314\INCLUDE\INITIALIZER_LIST
D:\MICROSOFT VISUAL STUDIO19\VC\TOOLS\MSVC\14.24.28314\INCLUDE\NEW
D:\MICROSOFT VISUAL STUDIO19\VC\TOOLS\MSVC\14.24.28314\INCLUDE\EXCEPTION
D:\MICROSOFT VISUAL STUDIO19\VC\TOOLS\MSVC\14.24.28314\INCLUDE\TYPE_TRAITS
D:\WINDOWS KITS\10\INCLUDE\10.0.18362.0\UCRT\MALLOC.H
D:\MICROSOFT VISUAL STUDIO19\VC\TOOLS\MSVC\14.24.28314\INCLUDE\VCRUNTIME_EXCEPTION.H
D:\MICROSOFT VISUAL STUDIO19\VC\TOOLS\MSVC\14.24.28314\INCLUDE\EH.H
D:\WINDOWS KITS\10\INCLUDE\10.0.18362.0\UCRT\CORECRT_TERMINATE.H
D:\MICROSOFT VISUAL STUDIO19\VC\TOOLS\MSVC\14.24.28314\INCLUDE\XATOMIC.H
D:\MICROSOFT VISUAL STUDIO19\VC\TOOLS\MSVC\14.24.28314\INCLUDE\INTRIN0.H
D:\MICROSOFT VISUAL STUDIO19\VC\TOOLS\MSVC\14.24.28314\INCLUDE\XUTILITY
D:\MICROSOFT VISUAL STUDIO19\VC\TOOLS\MSVC\14.24.28314\INCLUDE\UTILITY
D:\MICROSOFT VISUAL STUDIO19\VC\TOOLS\MSVC\14.24.28314\INCLUDE\XPOLYMORPHIC_ALLOCATOR.H
D:\MICROSOFT VISUAL STUDIO19\VC\TOOLS\MSVC\14.24.28314\INCLUDE\TUPLE
D:\MICROSOFT VISUAL STUDIO19\VC\TOOLS\MSVC\14.24.28314\INCLUDE\VECTOR
D:\MICROSOFT VISUAL STUDIO19\VC\TOOLS\MSVC\14.24.28314\INCLUDE\XBIT_OPS.H
D:\MICROSOFT VISUAL STUDIO19\VC\TOOLS\MSVC\14.24.28314\INCLUDE\XSTRING
D:\MICROSOFT VISUAL STUDIO19\VC\TOOLS\MSVC\14.24.28314\INCLUDE\IOSFWD
D:\MICROSOFT VISUAL STUDIO19\VC\TOOLS\MSVC\14.24.28314\INCLUDE\XNODE_HANDLE.H
D:\XSCRIPT\PROJECTS\TESTINI3\.BUILD\SOURCES\CPP\SRC\LANGUAGES\BACKENDINTERFACE.H
D:\MICROSOFT VISUAL STUDIO19\VC\TOOLS\MSVC\14.24.28314\INCLUDE\STRING
D:\MICROSOFT VISUAL STUDIO19\VC\TOOLS\MSVC\14.24.28314\INCLUDE\CCTYPE
D:\WINDOWS KITS\10\INCLUDE\10.0.18362.0\UCRT\CTYPE.H
D:\MICROSOFT VISUAL STUDIO19\VC\TOOLS\MSVC\14.24.28314\INCLUDE\IOSTREAM
D:\MICROSOFT VISUAL STUDIO19\VC\TOOLS\MSVC\14.24.28314\INCLUDE\ISTREAM
D:\MICROSOFT VISUAL STUDIO19\VC\TOOLS\MSVC\14.24.28314\INCLUDE\OSTREAM
D:\MICROSOFT VISUAL STUDIO19\VC\TOOLS\MSVC\14.24.28314\INCLUDE\IOS
D:\MICROSOFT VISUAL STUDIO19\VC\TOOLS\MSVC\14.24.28314\INCLUDE\XLOCNUM
D:\MICROSOFT VISUAL STUDIO19\VC\TOOLS\MSVC\14.24.28314\INCLUDE\STREAMBUF
D:\MICROSOFT VISUAL STUDIO19\VC\TOOLS\MSVC\14.24.28314\INCLUDE\XIOSBASE
D:\WINDOWS KITS\10\INCLUDE\10.0.18362.0\UCRT\SHARE.H
D:\MICROSOFT VISUAL STUDIO19\VC\TOOLS\MSVC\14.24.28314\INCLUDE\SYSTEM_ERROR
D:\MICROSOFT VISUAL STUDIO19\VC\TOOLS\MSVC\14.24.28314\INCLUDE\CERRNO
D:\MICROSOFT VISUAL STUDIO19\VC\TOOLS\MSVC\14.24.28314\INCLUDE\STDEXCEPT
D:\MICROSOFT VISUAL STUDIO19\VC\TOOLS\MSVC\14.24.28314\INCLUDE\XCALL_ONCE.H
D:\MICROSOFT VISUAL STUDIO19\VC\TOOLS\MSVC\14.24.28314\INCLUDE\XERRC.H
D:\MICROSOFT VISUAL STUDIO19\VC\TOOLS\MSVC\14.24.28314\INCLUDE\XLOCALE
D:\MICROSOFT VISUAL STUDIO19\VC\TOOLS\MSVC\14.24.28314\INCLUDE\MEMORY
D:\MICROSOFT VISUAL STUDIO19\VC\TOOLS\MSVC\14.24.28314\INCLUDE\TYPEINFO
D:\MICROSOFT VISUAL STUDIO19\VC\TOOLS\MSVC\14.24.28314\INCLUDE\VCRUNTIME_TYPEINFO.H
D:\MICROSOFT VISUAL STUDIO19\VC\TOOLS\MSVC\14.24.28314\INCLUDE\XFACET
D:\MICROSOFT VISUAL STUDIO19\VC\TOOLS\MSVC\14.24.28314\INCLUDE\XLOCINFO
D:\MICROSOFT VISUAL STUDIO19\VC\TOOLS\MSVC\14.24.28314\INCLUDE\XLOCINFO.H
D:\WINDOWS KITS\10\INCLUDE\10.0.18362.0\UCRT\LOCALE.H
^D:\XSCRIPT\PROJECTS\TESTINI3\.BUILD\SOURCES\CPP\SRC\LANGUAGES\SHARP\SHARPBACKEND.CPP
D:\XSCRIPT\PROJECTS\TESTINI3\.BUILD\SOURCES\CPP\SRC\LANGUAGES\SHARP\SHARPBACKEND.H
D:\MICROSOFT VISUAL STUDIO19\VC\TOOLS\MSVC\14.24.28314\INCLUDE\VECTOR
D:\MICROSOFT VISUAL STUDIO19\VC\TOOLS\MSVC\14.24.28314\INCLUDE\YVALS_CORE.H
D:\MICROSOFT VISUAL STUDIO19\VC\TOOLS\MSVC\14.24.28314\INCLUDE\VCRUNTIME.H
D:\MICROSOFT VISUAL STUDIO19\VC\TOOLS\MSVC\14.24.28314\INCLUDE\SAL.H
D:\MICROSOFT VISUAL STUDIO19\VC\TOOLS\MSVC\14.24.28314\INCLUDE\CONCURRENCYSAL.H
D:\MICROSOFT VISUAL STUDIO19\VC\TOOLS\MSVC\14.24.28314\INCLUDE\VADEFS.H
D:\MICROSOFT VISUAL STUDIO19\VC\TOOLS\MSVC\14.24.28314\INCLUDE\XKEYCHECK.H
D:\MICROSOFT VISUAL STUDIO19\VC\TOOLS\MSVC\14.24.28314\INCLUDE\XMEMORY
D:\MICROSOFT VISUAL STUDIO19\VC\TOOLS\MSVC\14.24.28314\INCLUDE\CSTDINT
D:\MICROSOFT VISUAL STUDIO19\VC\TOOLS\MSVC\14.24.28314\INCLUDE\YVALS.H
D:\WINDOWS KITS\10\INCLUDE\10.0.18362.0\UCRT\CRTDBG.H
D:\WINDOWS KITS\10\INCLUDE\10.0.18362.0\UCRT\CORECRT.H
D:\MICROSOFT VISUAL STUDIO19\VC\TOOLS\MSVC\14.24.28314\INCLUDE\VCRUNTIME_NEW_DEBUG.H
D:\MICROSOFT VISUAL STUDIO19\VC\TOOLS\MSVC\14.24.28314\INCLUDE\VCRUNTIME_NEW.H
D:\MICROSOFT VISUAL STUDIO19\VC\TOOLS\MSVC\14.24.28314\INCLUDE\CRTDEFS.H
D:\MICROSOFT VISUAL STUDIO19\VC\TOOLS\MSVC\14.24.28314\INCLUDE\USE_ANSI.H
D:\MICROSOFT VISUAL STUDIO19\VC\TOOLS\MSVC\14.24.28314\INCLUDE\STDINT.H
D:\MICROSOFT VISUAL STUDIO19\VC\TOOLS\MSVC\14.24.28314\INCLUDE\CSTDLIB
D:\WINDOWS KITS\10\INCLUDE\10.0.18362.0\UCRT\MATH.H
D:\WINDOWS KITS\10\INCLUDE\10.0.18362.0\UCRT\CORECRT_MATH.H
D:\WINDOWS KITS\10\INCLUDE\10.0.18362.0\UCRT\STDLIB.H
D:\WINDOWS KITS\10\INCLUDE\10.0.18362.0\UCRT\CORECRT_MALLOC.H
D:\WINDOWS KITS\10\INCLUDE\10.0.18362.0\UCRT\CORECRT_SEARCH.H
D:\WINDOWS KITS\10\INCLUDE\10.0.18362.0\UCRT\STDDEF.H
D:\WINDOWS KITS\10\INCLUDE\10.0.18362.0\UCRT\CORECRT_WSTDLIB.H
D:\MICROSOFT VISUAL STUDIO19\VC\TOOLS\MSVC\14.24.28314\INCLUDE\LIMITS.H
D:\MICROSOFT VISUAL STUDIO19\VC\TOOLS\MSVC\14.24.28314\INCLUDE\LIMITS
D:\MICROSOFT VISUAL STUDIO19\VC\TOOLS\MSVC\14.24.28314\INCLUDE\CFLOAT
D:\WINDOWS KITS\10\INCLUDE\10.0.18362.0\UCRT\FLOAT.H
D:\MICROSOFT VISUAL STUDIO19\VC\TOOLS\MSVC\14.24.28314\INCLUDE\CLIMITS
D:\MICROSOFT VISUAL STUDIO19\VC\TOOLS\MSVC\14.24.28314\INCLUDE\CWCHAR
D:\MICROSOFT VISUAL STUDIO19\VC\TOOLS\MSVC\14.24.28314\INCLUDE\CSTDIO
D:\WINDOWS KITS\10\INCLUDE\10.0.18362.0\UCRT\STDIO.H
D:\WINDOWS KITS\10\INCLUDE\10.0.18362.0\UCRT\CORECRT_WSTDIO.H
D:\WINDOWS KITS\10\INCLUDE\10.0.18362.0\UCRT\CORECRT_STDIO_CONFIG.H
D:\WINDOWS KITS\10\INCLUDE\10.0.18362.0\UCRT\WCHAR.H
D:\WINDOWS KITS\10\INCLUDE\10.0.18362.0\UCRT\CORECRT_MEMCPY_S.H
D:\WINDOWS KITS\10\INCLUDE\10.0.18362.0\UCRT\ERRNO.H
D:\MICROSOFT VISUAL STUDIO19\VC\TOOLS\MSVC\14.24.28314\INCLUDE\VCRUNTIME_STRING.H
D:\WINDOWS KITS\10\INCLUDE\10.0.18362.0\UCRT\CORECRT_WCONIO.H
D:\WINDOWS KITS\10\INCLUDE\10.0.18362.0\UCRT\CORECRT_WCTYPE.H
D:\WINDOWS KITS\10\INCLUDE\10.0.18362.0\UCRT\CORECRT_WDIRECT.H
D:\WINDOWS KITS\10\INCLUDE\10.0.18362.0\UCRT\CORECRT_WIO.H
D:\WINDOWS KITS\10\INCLUDE\10.0.18362.0\UCRT\CORECRT_SHARE.H
D:\WINDOWS KITS\10\INCLUDE\10.0.18362.0\UCRT\CORECRT_WPROCESS.H
D:\WINDOWS KITS\10\INCLUDE\10.0.18362.0\UCRT\CORECRT_WSTRING.H
D:\WINDOWS KITS\10\INCLUDE\10.0.18362.0\UCRT\CORECRT_WTIME.H
D:\WINDOWS KITS\10\INCLUDE\10.0.18362.0\UCRT\SYS\STAT.H
D:\WINDOWS KITS\10\INCLUDE\10.0.18362.0\UCRT\SYS\TYPES.H
D:\MICROSOFT VISUAL STUDIO19\VC\TOOLS\MSVC\14.24.28314\INCLUDE\XSTDDEF
D:\MICROSOFT VISUAL STUDIO19\VC\TOOLS\MSVC\14.24.28314\INCLUDE\CSTDDEF
D:\MICROSOFT VISUAL STUDIO19\VC\TOOLS\MSVC\14.24.28314\INCLUDE\XTR1COMMON
D:\MICROSOFT VISUAL STUDIO19\VC\TOOLS\MSVC\14.24.28314\INCLUDE\INITIALIZER_LIST
D:\MICROSOFT VISUAL STUDIO19\VC\TOOLS\MSVC\14.24.28314\INCLUDE\NEW
D:\MICROSOFT VISUAL STUDIO19\VC\TOOLS\MSVC\14.24.28314\INCLUDE\EXCEPTION
D:\MICROSOFT VISUAL STUDIO19\VC\TOOLS\MSVC\14.24.28314\INCLUDE\TYPE_TRAITS
D:\WINDOWS KITS\10\INCLUDE\10.0.18362.0\UCRT\MALLOC.H
D:\MICROSOFT VISUAL STUDIO19\VC\TOOLS\MSVC\14.24.28314\INCLUDE\VCRUNTIME_EXCEPTION.H
D:\MICROSOFT VISUAL STUDIO19\VC\TOOLS\MSVC\14.24.28314\INCLUDE\EH.H
D:\WINDOWS KITS\10\INCLUDE\10.0.18362.0\UCRT\CORECRT_TERMINATE.H
D:\MICROSOFT VISUAL STUDIO19\VC\TOOLS\MSVC\14.24.28314\INCLUDE\XATOMIC.H
D:\MICROSOFT VISUAL STUDIO19\VC\TOOLS\MSVC\14.24.28314\INCLUDE\INTRIN0.H
D:\MICROSOFT VISUAL STUDIO19\VC\TOOLS\MSVC\14.24.28314\INCLUDE\XUTILITY
D:\MICROSOFT VISUAL STUDIO19\VC\TOOLS\MSVC\14.24.28314\INCLUDE\CSTRING
D:\WINDOWS KITS\10\INCLUDE\10.0.18362.0\UCRT\STRING.H
D:\WINDOWS KITS\10\INCLUDE\10.0.18362.0\UCRT\CORECRT_MEMORY.H
D:\MICROSOFT VISUAL STUDIO19\VC\TOOLS\MSVC\14.24.28314\INCLUDE\UTILITY
D:\MICROSOFT VISUAL STUDIO19\VC\TOOLS\MSVC\14.24.28314\INCLUDE\XPOLYMORPHIC_ALLOCATOR.H
D:\MICROSOFT VISUAL STUDIO19\VC\TOOLS\MSVC\14.24.28314\INCLUDE\TUPLE
D:\MICROSOFT VISUAL STUDIO19\VC\TOOLS\MSVC\14.24.28314\INCLUDE\STRING
D:\MICROSOFT VISUAL STUDIO19\VC\TOOLS\MSVC\14.24.28314\INCLUDE\XSTRING
D:\MICROSOFT VISUAL STUDIO19\VC\TOOLS\MSVC\14.24.28314\INCLUDE\IOSFWD
D:\MICROSOFT VISUAL STUDIO19\VC\TOOLS\MSVC\14.24.28314\INCLUDE\CCTYPE
D:\WINDOWS KITS\10\INCLUDE\10.0.18362.0\UCRT\CTYPE.H
D:\MICROSOFT VISUAL STUDIO19\VC\TOOLS\MSVC\14.24.28314\INCLUDE\FUNCTIONAL
D:\MICROSOFT VISUAL STUDIO19\VC\TOOLS\MSVC\14.24.28314\INCLUDE\TYPEINFO
D:\MICROSOFT VISUAL STUDIO19\VC\TOOLS\MSVC\14.24.28314\INCLUDE\VCRUNTIME_TYPEINFO.H
D:\MICROSOFT VISUAL STUDIO19\VC\TOOLS\MSVC\14.24.28314\INCLUDE\MEMORY
D:\MICROSOFT VISUAL STUDIO19\VC\TOOLS\MSVC\14.24.28314\INCLUDE\UNORDERED_MAP
D:\MICROSOFT VISUAL STUDIO19\VC\TOOLS\MSVC\14.24.28314\INCLUDE\XHASH
D:\MICROSOFT VISUAL STUDIO19\VC\TOOLS\MSVC\14.24.28314\INCLUDE\CMATH
D:\MICROSOFT VISUAL STUDIO19\VC\TOOLS\MSVC\14.24.28314\INCLUDE\XTGMATH.H
D:\MICROSOFT VISUAL STUDIO19\VC\TOOLS\MSVC\14.24.28314\INCLUDE\LIST
D:\MICROSOFT VISUAL STUDIO19\VC\TOOLS\MSVC\14.24.28314\INCLUDE\XBIT_OPS.H
D:\MICROSOFT VISUAL STUDIO19\VC\TOOLS\MSVC\14.24.28314\INCLUDE\XNODE_HANDLE.H
D:\XSCRIPT\PROJECTS\TESTINI3\.BUILD\SOURCES\CPP\INCLUDE\MONO\JIT\JIT.H
D:\XSCRIPT\PROJECTS\TESTINI3\.BUILD\SOURCES\CPP\INCLUDE\MONO\METADATA\APPDOMAIN.H
D:\XSCRIPT\PROJECTS\TESTINI3\.BUILD\SOURCES\CPP\INCLUDE\MONO\UTILS\MONO-PUBLIB.H
D:\XSCRIPT\PROJECTS\TESTINI3\.BUILD\SOURCES\CPP\INCLUDE\MONO\UTILS\MONO-FORWARD.H
D:\XSCRIPT\PROJECTS\TESTINI3\.BUILD\SOURCES\CPP\INCLUDE\MONO\METADATA\OBJECT.H
D:\XSCRIPT\PROJECTS\TESTINI3\.BUILD\SOURCES\CPP\INCLUDE\MONO\METADATA\OBJECT-FORWARD.H
D:\XSCRIPT\PROJECTS\TESTINI3\.BUILD\SOURCES\CPP\INCLUDE\MONO\METADATA\CLASS.H
D:\XSCRIPT\PROJECTS\TESTINI3\.BUILD\SOURCES\CPP\INCLUDE\MONO\METADATA\METADATA.H
D:\XSCRIPT\PROJECTS\TESTINI3\.BUILD\SOURCES\CPP\INCLUDE\MONO\METADATA\BLOB.H
D:\XSCRIPT\PROJECTS\TESTINI3\.BUILD\SOURCES\CPP\INCLUDE\MONO\METADATA\ROW-INDEXES.H
D:\XSCRIPT\PROJECTS\TESTINI3\.BUILD\SOURCES\CPP\INCLUDE\MONO\METADATA\IMAGE.H
D:\XSCRIPT\PROJECTS\TESTINI3\.BUILD\SOURCES\CPP\INCLUDE\MONO\UTILS\MONO-ERROR.H
D:\XSCRIPT\PROJECTS\TESTINI3\.BUILD\SOURCES\CPP\INCLUDE\MONO\METADATA\LOADER.H
D:\XSCRIPT\PROJECTS\TESTINI3\.BUILD\SOURCES\CPP\INCLUDE\MONO\METADATA\REFLECTION.H
D:\XSCRIPT\PROJECTS\TESTINI3\.BUILD\SOURCES\CPP\INCLUDE\MONO\METADATA\ASSEMBLY.H
D:\XSCRIPT\PROJECTS\TESTINI3\.BUILD\SOURCES\CPP\INCLUDE\MONO\METADATA\MONO-CONFIG.H
D:\XSCRIPT\PROJECTS\TESTINI3\.BUILD\SOURCES\CPP\INCLUDE\MONO\METADATA\ATTRDEFS.H
D:\XSCRIPT\PROJECTS\TESTINI3\.BUILD\SOURCES\CPP\INCLUDE\MONO\METADATA\MONO-GC.H
D:\XSCRIPT\PROJECTS\TESTINI3\.BUILD\SOURCES\CPP\INCLUDE\MONO\METADATA\THREADS.H
D:\XSCRIPT\PROJECTS\TESTINI3\.BUILD\SOURCES\CPP\INCLUDE\MONO\METADATA\TOKENTYPE.H
D:\XSCRIPT\PROJECTS\TESTINI3\.BUILD\SOURCES\CPP\INCLUDE\MONO\METADATA\DEBUG-HELPERS.H
D:\XSCRIPT\PROJECTS\TESTINI3\.BUILD\SOURCES\CPP\INCLUDE\MONO\UTILS\MONO-LOGGER.H
D:\XSCRIPT\PROJECTS\TESTINI3\.BUILD\SOURCES\CPP\INCLUDE\MONO\METADATA\MONO-DEBUG.H
D:\XSCRIPT\PROJECTS\TESTINI3\.BUILD\SOURCES\CPP\SRC\LANGUAGES\BACKENDINTERFACE.H
D:\XSCRIPT\PROJECTS\TESTINI3\.BUILD\SOURCES\CPP\SRC\UTILITY\MEMORY.H
D:\MICROSOFT VISUAL STUDIO19\VC\TOOLS\MSVC\14.24.28314\INCLUDE\ATOMIC
D:\MICROSOFT VISUAL STUDIO19\VC\TOOLS\MSVC\14.24.28314\INCLUDE\FSTREAM
D:\MICROSOFT VISUAL STUDIO19\VC\TOOLS\MSVC\14.24.28314\INCLUDE\ISTREAM
D:\MICROSOFT VISUAL STUDIO19\VC\TOOLS\MSVC\14.24.28314\INCLUDE\OSTREAM
D:\MICROSOFT VISUAL STUDIO19\VC\TOOLS\MSVC\14.24.28314\INCLUDE\IOS
D:\MICROSOFT VISUAL STUDIO19\VC\TOOLS\MSVC\14.24.28314\INCLUDE\XLOCNUM
D:\MICROSOFT VISUAL STUDIO19\VC\TOOLS\MSVC\14.24.28314\INCLUDE\STREAMBUF
D:\MICROSOFT VISUAL STUDIO19\VC\TOOLS\MSVC\14.24.28314\INCLUDE\XIOSBASE
D:\WINDOWS KITS\10\INCLUDE\10.0.18362.0\UCRT\SHARE.H
D:\MICROSOFT VISUAL STUDIO19\VC\TOOLS\MSVC\14.24.28314\INCLUDE\SYSTEM_ERROR
D:\MICROSOFT VISUAL STUDIO19\VC\TOOLS\MSVC\14.24.28314\INCLUDE\CERRNO
D:\MICROSOFT VISUAL STUDIO19\VC\TOOLS\MSVC\14.24.28314\INCLUDE\STDEXCEPT
D:\MICROSOFT VISUAL STUDIO19\VC\TOOLS\MSVC\14.24.28314\INCLUDE\XCALL_ONCE.H
D:\MICROSOFT VISUAL STUDIO19\VC\TOOLS\MSVC\14.24.28314\INCLUDE\XERRC.H
D:\MICROSOFT VISUAL STUDIO19\VC\TOOLS\MSVC\14.24.28314\INCLUDE\XLOCALE
D:\MICROSOFT VISUAL STUDIO19\VC\TOOLS\MSVC\14.24.28314\INCLUDE\XFACET
D:\MICROSOFT VISUAL STUDIO19\VC\TOOLS\MSVC\14.24.28314\INCLUDE\XLOCINFO
D:\MICROSOFT VISUAL STUDIO19\VC\TOOLS\MSVC\14.24.28314\INCLUDE\XLOCINFO.H
D:\WINDOWS KITS\10\INCLUDE\10.0.18362.0\UCRT\LOCALE.H
D:\MICROSOFT VISUAL STUDIO19\VC\TOOLS\MSVC\14.24.28314\INCLUDE\IOSTREAM
^D:\XSCRIPT\PROJECTS\TESTINI3\.BUILD\SOURCES\CPP\SRC\SANDBOX.CPP
D:\MICROSOFT VISUAL STUDIO19\VC\TOOLS\MSVC\14.24.28314\BIN\HOSTX86\X64\1033\CLUI.DLL
C:\WINDOWS\GLOBALIZATION\SORTING\SORTDEFAULT.NLS
C:\WINDOWS\SYSTEM32\TZRES.DLL
D:\MICROSOFT VISUAL STUDIO19\VC\TOOLS\MSVC\14.24.28314\INCLUDE\IOSTREAM
D:\MICROSOFT VISUAL STUDIO19\VC\TOOLS\MSVC\14.24.28314\INCLUDE\YVALS_CORE.H
D:\MICROSOFT VISUAL STUDIO19\VC\TOOLS\MSVC\14.24.28314\INCLUDE\VCRUNTIME.H
D:\MICROSOFT VISUAL STUDIO19\VC\TOOLS\MSVC\14.24.28314\INCLUDE\SAL.H
D:\MICROSOFT VISUAL STUDIO19\VC\TOOLS\MSVC\14.24.28314\INCLUDE\CONCURRENCYSAL.H
D:\MICROSOFT VISUAL STUDIO19\VC\TOOLS\MSVC\14.24.28314\INCLUDE\VADEFS.H
D:\MICROSOFT VISUAL STUDIO19\VC\TOOLS\MSVC\14.24.28314\INCLUDE\XKEYCHECK.H
D:\MICROSOFT VISUAL STUDIO19\VC\TOOLS\MSVC\14.24.28314\INCLUDE\ISTREAM
D:\MICROSOFT VISUAL STUDIO19\VC\TOOLS\MSVC\14.24.28314\INCLUDE\OSTREAM
D:\MICROSOFT VISUAL STUDIO19\VC\TOOLS\MSVC\14.24.28314\INCLUDE\IOS
D:\MICROSOFT VISUAL STUDIO19\VC\TOOLS\MSVC\14.24.28314\INCLUDE\XLOCNUM
D:\MICROSOFT VISUAL STUDIO19\VC\TOOLS\MSVC\14.24.28314\INCLUDE\CLIMITS
D:\MICROSOFT VISUAL STUDIO19\VC\TOOLS\MSVC\14.24.28314\INCLUDE\LIMITS.H
D:\MICROSOFT VISUAL STUDIO19\VC\TOOLS\MSVC\14.24.28314\INCLUDE\CMATH
D:\MICROSOFT VISUAL STUDIO19\VC\TOOLS\MSVC\14.24.28314\INCLUDE\YVALS.H
D:\WINDOWS KITS\10\INCLUDE\10.0.18362.0\UCRT\CRTDBG.H
D:\WINDOWS KITS\10\INCLUDE\10.0.18362.0\UCRT\CORECRT.H
D:\MICROSOFT VISUAL STUDIO19\VC\TOOLS\MSVC\14.24.28314\INCLUDE\VCRUNTIME_NEW_DEBUG.H
D:\MICROSOFT VISUAL STUDIO19\VC\TOOLS\MSVC\14.24.28314\INCLUDE\VCRUNTIME_NEW.H
D:\MICROSOFT VISUAL STUDIO19\VC\TOOLS\MSVC\14.24.28314\INCLUDE\CRTDEFS.H
D:\MICROSOFT VISUAL STUDIO19\VC\TOOLS\MSVC\14.24.28314\INCLUDE\USE_ANSI.H
D:\MICROSOFT VISUAL STUDIO19\VC\TOOLS\MSVC\14.24.28314\INCLUDE\CSTDLIB
D:\WINDOWS KITS\10\INCLUDE\10.0.18362.0\UCRT\MATH.H
D:\WINDOWS KITS\10\INCLUDE\10.0.18362.0\UCRT\CORECRT_MATH.H
D:\WINDOWS KITS\10\INCLUDE\10.0.18362.0\UCRT\STDLIB.H
D:\WINDOWS KITS\10\INCLUDE\10.0.18362.0\UCRT\CORECRT_MALLOC.H
D:\WINDOWS KITS\10\INCLUDE\10.0.18362.0\UCRT\CORECRT_SEARCH.H
D:\WINDOWS KITS\10\INCLUDE\10.0.18362.0\UCRT\STDDEF.H
D:\WINDOWS KITS\10\INCLUDE\10.0.18362.0\UCRT\CORECRT_WSTDLIB.H
D:\MICROSOFT VISUAL STUDIO19\VC\TOOLS\MSVC\14.24.28314\INCLUDE\XTGMATH.H
D:\MICROSOFT VISUAL STUDIO19\VC\TOOLS\MSVC\14.24.28314\INCLUDE\XTR1COMMON
D:\MICROSOFT VISUAL STUDIO19\VC\TOOLS\MSVC\14.24.28314\INCLUDE\CSTDIO
D:\WINDOWS KITS\10\INCLUDE\10.0.18362.0\UCRT\STDIO.H
D:\WINDOWS KITS\10\INCLUDE\10.0.18362.0\UCRT\CORECRT_WSTDIO.H
D:\WINDOWS KITS\10\INCLUDE\10.0.18362.0\UCRT\CORECRT_STDIO_CONFIG.H
D:\MICROSOFT VISUAL STUDIO19\VC\TOOLS\MSVC\14.24.28314\INCLUDE\STREAMBUF
D:\MICROSOFT VISUAL STUDIO19\VC\TOOLS\MSVC\14.24.28314\INCLUDE\XIOSBASE
D:\WINDOWS KITS\10\INCLUDE\10.0.18362.0\UCRT\SHARE.H
D:\WINDOWS KITS\10\INCLUDE\10.0.18362.0\UCRT\CORECRT_SHARE.H
D:\MICROSOFT VISUAL STUDIO19\VC\TOOLS\MSVC\14.24.28314\INCLUDE\SYSTEM_ERROR
D:\MICROSOFT VISUAL STUDIO19\VC\TOOLS\MSVC\14.24.28314\INCLUDE\CERRNO
D:\WINDOWS KITS\10\INCLUDE\10.0.18362.0\UCRT\ERRNO.H
D:\MICROSOFT VISUAL STUDIO19\VC\TOOLS\MSVC\14.24.28314\INCLUDE\STDEXCEPT
D:\MICROSOFT VISUAL STUDIO19\VC\TOOLS\MSVC\14.24.28314\INCLUDE\EXCEPTION
D:\MICROSOFT VISUAL STUDIO19\VC\TOOLS\MSVC\14.24.28314\INCLUDE\TYPE_TRAITS
D:\MICROSOFT VISUAL STUDIO19\VC\TOOLS\MSVC\14.24.28314\INCLUDE\XSTDDEF
D:\MICROSOFT VISUAL STUDIO19\VC\TOOLS\MSVC\14.24.28314\INCLUDE\CSTDDEF
D:\MICROSOFT VISUAL STUDIO19\VC\TOOLS\MSVC\14.24.28314\INCLUDE\INITIALIZER_LIST
D:\WINDOWS KITS\10\INCLUDE\10.0.18362.0\UCRT\MALLOC.H
D:\MICROSOFT VISUAL STUDIO19\VC\TOOLS\MSVC\14.24.28314\INCLUDE\VCRUNTIME_EXCEPTION.H
D:\MICROSOFT VISUAL STUDIO19\VC\TOOLS\MSVC\14.24.28314\INCLUDE\EH.H
D:\WINDOWS KITS\10\INCLUDE\10.0.18362.0\UCRT\CORECRT_TERMINATE.H
D:\MICROSOFT VISUAL STUDIO19\VC\TOOLS\MSVC\14.24.28314\INCLUDE\XSTRING
D:\MICROSOFT VISUAL STUDIO19\VC\TOOLS\MSVC\14.24.28314\INCLUDE\IOSFWD
D:\MICROSOFT VISUAL STUDIO19\VC\TOOLS\MSVC\14.24.28314\INCLUDE\CSTRING
D:\WINDOWS KITS\10\INCLUDE\10.0.18362.0\UCRT\STRING.H
D:\WINDOWS KITS\10\INCLUDE\10.0.18362.0\UCRT\CORECRT_MEMORY.H
D:\WINDOWS KITS\10\INCLUDE\10.0.18362.0\UCRT\CORECRT_MEMCPY_S.H
D:\MICROSOFT VISUAL STUDIO19\VC\TOOLS\MSVC\14.24.28314\INCLUDE\VCRUNTIME_STRING.H
D:\WINDOWS KITS\10\INCLUDE\10.0.18362.0\UCRT\CORECRT_WSTRING.H
D:\MICROSOFT VISUAL STUDIO19\VC\TOOLS\MSVC\14.24.28314\INCLUDE\CWCHAR
D:\WINDOWS KITS\10\INCLUDE\10.0.18362.0\UCRT\WCHAR.H
D:\WINDOWS KITS\10\INCLUDE\10.0.18362.0\UCRT\CORECRT_WCONIO.H
D:\WINDOWS KITS\10\INCLUDE\10.0.18362.0\UCRT\CORECRT_WCTYPE.H
D:\WINDOWS KITS\10\INCLUDE\10.0.18362.0\UCRT\CORECRT_WDIRECT.H
D:\WINDOWS KITS\10\INCLUDE\10.0.18362.0\UCRT\CORECRT_WIO.H
D:\WINDOWS KITS\10\INCLUDE\10.0.18362.0\UCRT\CORECRT_WPROCESS.H
D:\WINDOWS KITS\10\INCLUDE\10.0.18362.0\UCRT\CORECRT_WTIME.H
D:\WINDOWS KITS\10\INCLUDE\10.0.18362.0\UCRT\SYS\STAT.H
D:\WINDOWS KITS\10\INCLUDE\10.0.18362.0\UCRT\SYS\TYPES.H
D:\MICROSOFT VISUAL STUDIO19\VC\TOOLS\MSVC\14.24.28314\INCLUDE\XMEMORY
D:\MICROSOFT VISUAL STUDIO19\VC\TOOLS\MSVC\14.24.28314\INCLUDE\CSTDINT
D:\MICROSOFT VISUAL STUDIO19\VC\TOOLS\MSVC\14.24.28314\INCLUDE\STDINT.H
D:\MICROSOFT VISUAL STUDIO19\VC\TOOLS\MSVC\14.24.28314\INCLUDE\LIMITS
D:\MICROSOFT VISUAL STUDIO19\VC\TOOLS\MSVC\14.24.28314\INCLUDE\CFLOAT
D:\WINDOWS KITS\10\INCLUDE\10.0.18362.0\UCRT\FLOAT.H
D:\MICROSOFT VISUAL STUDIO19\VC\TOOLS\MSVC\14.24.28314\INCLUDE\NEW
D:\MICROSOFT VISUAL STUDIO19\VC\TOOLS\MSVC\14.24.28314\INCLUDE\XATOMIC.H
D:\MICROSOFT VISUAL STUDIO19\VC\TOOLS\MSVC\14.24.28314\INCLUDE\INTRIN0.H
D:\MICROSOFT VISUAL STUDIO19\VC\TOOLS\MSVC\14.24.28314\INCLUDE\XUTILITY
D:\MICROSOFT VISUAL STUDIO19\VC\TOOLS\MSVC\14.24.28314\INCLUDE\UTILITY
D:\MICROSOFT VISUAL STUDIO19\VC\TOOLS\MSVC\14.24.28314\INCLUDE\XPOLYMORPHIC_ALLOCATOR.H
D:\MICROSOFT VISUAL STUDIO19\VC\TOOLS\MSVC\14.24.28314\INCLUDE\TUPLE
D:\MICROSOFT VISUAL STUDIO19\VC\TOOLS\MSVC\14.24.28314\INCLUDE\XCALL_ONCE.H
D:\MICROSOFT VISUAL STUDIO19\VC\TOOLS\MSVC\14.24.28314\INCLUDE\XERRC.H
D:\MICROSOFT VISUAL STUDIO19\VC\TOOLS\MSVC\14.24.28314\INCLUDE\XLOCALE
D:\MICROSOFT VISUAL STUDIO19\VC\TOOLS\MSVC\14.24.28314\INCLUDE\MEMORY
D:\MICROSOFT VISUAL STUDIO19\VC\TOOLS\MSVC\14.24.28314\INCLUDE\TYPEINFO
D:\MICROSOFT VISUAL STUDIO19\VC\TOOLS\MSVC\14.24.28314\INCLUDE\VCRUNTIME_TYPEINFO.H
D:\MICROSOFT VISUAL STUDIO19\VC\TOOLS\MSVC\14.24.28314\INCLUDE\XFACET
D:\MICROSOFT VISUAL STUDIO19\VC\TOOLS\MSVC\14.24.28314\INCLUDE\XLOCINFO
D:\MICROSOFT VISUAL STUDIO19\VC\TOOLS\MSVC\14.24.28314\INCLUDE\XLOCINFO.H
D:\WINDOWS KITS\10\INCLUDE\10.0.18362.0\UCRT\CTYPE.H
D:\WINDOWS KITS\10\INCLUDE\10.0.18362.0\UCRT\LOCALE.H
D:\MICROSOFT VISUAL STUDIO19\VC\TOOLS\MSVC\14.24.28314\INCLUDE\STRING
D:\MICROSOFT VISUAL STUDIO19\VC\TOOLS\MSVC\14.24.28314\INCLUDE\CCTYPE
D:\XSCRIPT\PROJECTS\TESTINI3\.BUILD\SOURCES\CPP\SRC\LANGUAGES\RUNTIME.H
D:\MICROSOFT VISUAL STUDIO19\VC\TOOLS\MSVC\14.24.28314\INCLUDE\UNORDERED_MAP
D:\MICROSOFT VISUAL STUDIO19\VC\TOOLS\MSVC\14.24.28314\INCLUDE\XHASH
D:\MICROSOFT VISUAL STUDIO19\VC\TOOLS\MSVC\14.24.28314\INCLUDE\LIST
D:\MICROSOFT VISUAL STUDIO19\VC\TOOLS\MSVC\14.24.28314\INCLUDE\VECTOR
D:\MICROSOFT VISUAL STUDIO19\VC\TOOLS\MSVC\14.24.28314\INCLUDE\XBIT_OPS.H
D:\MICROSOFT VISUAL STUDIO19\VC\TOOLS\MSVC\14.24.28314\INCLUDE\XNODE_HANDLE.H
D:\XSCRIPT\PROJECTS\TESTINI3\.BUILD\SOURCES\CPP\SRC\LANGUAGES\BACKENDINTERFACE.H
D:\XSCRIPT\PROJECTS\TESTINI3\.BUILD\SOURCES\CPP\SRC\LANGUAGES\PYTHON\PYTHONBACKEND.H
D:\XSCRIPT\PROJECTS\TESTINI3\.BUILD\SOURCES\CPP\SRC\UTILITY\MEMORY.H
D:\MICROSOFT VISUAL STUDIO19\VC\TOOLS\MSVC\14.24.28314\INCLUDE\ATOMIC
D:\XSCRIPT\PROJECTS\TESTINI3\.BUILD\SOURCES\CPP\INCLUDE\PYBIND11\PYBIND11.H
D:\XSCRIPT\PROJECTS\TESTINI3\.BUILD\SOURCES\CPP\INCLUDE\PYBIND11\ATTR.H
D:\XSCRIPT\PROJECTS\TESTINI3\.BUILD\SOURCES\CPP\INCLUDE\PYBIND11\CAST.H
D:\XSCRIPT\PROJECTS\TESTINI3\.BUILD\SOURCES\CPP\INCLUDE\PYBIND11\PYTYPES.H
D:\XSCRIPT\PROJECTS\TESTINI3\.BUILD\SOURCES\CPP\INCLUDE\PYBIND11\DETAIL\COMMON.H
D:\XSCRIPT\PROJECTS\TESTINI3\.BUILD\SOURCES\CPP\INCLUDE\PYTHON.H
D:\XSCRIPT\PROJECTS\TESTINI3\.BUILD\SOURCES\CPP\INCLUDE\PATCHLEVEL.H
D:\XSCRIPT\PROJECTS\TESTINI3\.BUILD\SOURCES\CPP\INCLUDE\PYCONFIG.H
D:\WINDOWS KITS\10\INCLUDE\10.0.18362.0\UCRT\IO.H
D:\WINDOWS KITS\10\INCLUDE\10.0.18362.0\UCRT\CORECRT_IO.H
D:\WINDOWS KITS\10\INCLUDE\10.0.18362.0\SHARED\BASETSD.H
D:\XSCRIPT\PROJECTS\TESTINI3\.BUILD\SOURCES\CPP\INCLUDE\PYMACCONFIG.H
D:\WINDOWS KITS\10\INCLUDE\10.0.18362.0\UCRT\ASSERT.H
D:\XSCRIPT\PROJECTS\TESTINI3\.BUILD\SOURCES\CPP\INCLUDE\PYPORT.H
D:\WINDOWS KITS\10\INCLUDE\10.0.18362.0\UCRT\INTTYPES.H
D:\WINDOWS KITS\10\INCLUDE\10.0.18362.0\UCRT\TIME.H
D:\XSCRIPT\PROJECTS\TESTINI3\.BUILD\SOURCES\CPP\INCLUDE\PYMACRO.H
D:\XSCRIPT\PROJECTS\TESTINI3\.BUILD\SOURCES\CPP\INCLUDE\PYMATH.H
D:\XSCRIPT\PROJECTS\TESTINI3\.BUILD\SOURCES\CPP\INCLUDE\PYTIME.H
D:\XSCRIPT\PROJECTS\TESTINI3\.BUILD\SOURCES\CPP\INCLUDE\OBJECT.H
D:\XSCRIPT\PROJECTS\TESTINI3\.BUILD\SOURCES\CPP\INCLUDE\PYMEM.H
D:\XSCRIPT\PROJECTS\TESTINI3\.BUILD\SOURCES\CPP\INCLUDE\CPYTHON\PYMEM.H
D:\XSCRIPT\PROJECTS\TESTINI3\.BUILD\SOURCES\CPP\INCLUDE\CPYTHON\OBJECT.H
D:\XSCRIPT\PROJECTS\TESTINI3\.BUILD\SOURCES\CPP\INCLUDE\OBJIMPL.H
D:\XSCRIPT\PROJECTS\TESTINI3\.BUILD\SOURCES\CPP\INCLUDE\CPYTHON\OBJIMPL.H
D:\XSCRIPT\PROJECTS\TESTINI3\.BUILD\SOURCES\CPP\INCLUDE\TYPESLOTS.H
D:\XSCRIPT\PROJECTS\TESTINI3\.BUILD\SOURCES\CPP\INCLUDE\PYHASH.H
D:\XSCRIPT\PROJECTS\TESTINI3\.BUILD\SOURCES\CPP\INCLUDE\PYDEBUG.H
D:\XSCRIPT\PROJECTS\TESTINI3\.BUILD\SOURCES\CPP\INCLUDE\BYTEARRAYOBJECT.H
D:\MICROSOFT VISUAL STUDIO19\VC\TOOLS\MSVC\14.24.28314\INCLUDE\STDARG.H
D:\XSCRIPT\PROJECTS\TESTINI3\.BUILD\SOURCES\CPP\INCLUDE\BYTESOBJECT.H
D:\XSCRIPT\PROJECTS\TESTINI3\.BUILD\SOURCES\CPP\INCLUDE\UNICODEOBJECT.H
D:\XSCRIPT\PROJECTS\TESTINI3\.BUILD\SOURCES\CPP\INCLUDE\CPYTHON\UNICODEOBJECT.H
D:\XSCRIPT\PROJECTS\TESTINI3\.BUILD\SOURCES\CPP\INCLUDE\LONGOBJECT.H
D:\XSCRIPT\PROJECTS\TESTINI3\.BUILD\SOURCES\CPP\INCLUDE\LONGINTREPR.H
D:\XSCRIPT\PROJECTS\TESTINI3\.BUILD\SOURCES\CPP\INCLUDE\BOOLOBJECT.H
D:\XSCRIPT\PROJECTS\TESTINI3\.BUILD\SOURCES\CPP\INCLUDE\FLOATOBJECT.H
D:\XSCRIPT\PROJECTS\TESTINI3\.BUILD\SOURCES\CPP\INCLUDE\COMPLEXOBJECT.H
D:\XSCRIPT\PROJECTS\TESTINI3\.BUILD\SOURCES\CPP\INCLUDE\RANGEOBJECT.H
D:\XSCRIPT\PROJECTS\TESTINI3\.BUILD\SOURCES\CPP\INCLUDE\MEMORYOBJECT.H
D:\XSCRIPT\PROJECTS\TESTINI3\.BUILD\SOURCES\CPP\INCLUDE\TUPLEOBJECT.H
D:\XSCRIPT\PROJECTS\TESTINI3\.BUILD\SOURCES\CPP\INCLUDE\CPYTHON\TUPLEOBJECT.H
D:\XSCRIPT\PROJECTS\TESTINI3\.BUILD\SOURCES\CPP\INCLUDE\LISTOBJECT.H
D:\XSCRIPT\PROJECTS\TESTINI3\.BUILD\SOURCES\CPP\INCLUDE\DICTOBJECT.H
D:\XSCRIPT\PROJECTS\TESTINI3\.BUILD\SOURCES\CPP\INCLUDE\CPYTHON\DICTOBJECT.H
D:\XSCRIPT\PROJECTS\TESTINI3\.BUILD\SOURCES\CPP\INCLUDE\ODICTOBJECT.H
D:\XSCRIPT\PROJECTS\TESTINI3\.BUILD\SOURCES\CPP\INCLUDE\ENUMOBJECT.H
D:\XSCRIPT\PROJECTS\TESTINI3\.BUILD\SOURCES\CPP\INCLUDE\SETOBJECT.H
D:\XSCRIPT\PROJECTS\TESTINI3\.BUILD\SOURCES\CPP\INCLUDE\METHODOBJECT.H
D:\XSCRIPT\PROJECTS\TESTINI3\.BUILD\SOURCES\CPP\INCLUDE\MODULEOBJECT.H
D:\XSCRIPT\PROJECTS\TESTINI3\.BUILD\SOURCES\CPP\INCLUDE\FUNCOBJECT.H
D:\XSCRIPT\PROJECTS\TESTINI3\.BUILD\SOURCES\CPP\INCLUDE\CLASSOBJECT.H
D:\XSCRIPT\PROJECTS\TESTINI3\.BUILD\SOURCES\CPP\INCLUDE\FILEOBJECT.H
D:\XSCRIPT\PROJECTS\TESTINI3\.BUILD\SOURCES\CPP\INCLUDE\CPYTHON\FILEOBJECT.H
D:\XSCRIPT\PROJECTS\TESTINI3\.BUILD\SOURCES\CPP\INCLUDE\PYCAPSULE.H
D:\XSCRIPT\PROJECTS\TESTINI3\.BUILD\SOURCES\CPP\INCLUDE\TRACEBACK.H
D:\XSCRIPT\PROJECTS\TESTINI3\.BUILD\SOURCES\CPP\INCLUDE\CPYTHON\TRACEBACK.H
D:\XSCRIPT\PROJECTS\TESTINI3\.BUILD\SOURCES\CPP\INCLUDE\SLICEOBJECT.H
D:\XSCRIPT\PROJECTS\TESTINI3\.BUILD\SOURCES\CPP\INCLUDE\CELLOBJECT.H
D:\XSCRIPT\PROJECTS\TESTINI3\.BUILD\SOURCES\CPP\INCLUDE\ITEROBJECT.H
D:\XSCRIPT\PROJECTS\TESTINI3\.BUILD\SOURCES\CPP\INCLUDE\GENOBJECT.H
D:\XSCRIPT\PROJECTS\TESTINI3\.BUILD\SOURCES\CPP\INCLUDE\PYSTATE.H
D:\XSCRIPT\PROJECTS\TESTINI3\.BUILD\SOURCES\CPP\INCLUDE\PYTHREAD.H
D:\XSCRIPT\PROJECTS\TESTINI3\.BUILD\SOURCES\CPP\INCLUDE\CPYTHON\PYSTATE.H
D:\XSCRIPT\PROJECTS\TESTINI3\.BUILD\SOURCES\CPP\INCLUDE\CPYTHON\INITCONFIG.H
D:\XSCRIPT\PROJECTS\TESTINI3\.BUILD\SOURCES\CPP\INCLUDE\DESCROBJECT.H
D:\XSCRIPT\PROJECTS\TESTINI3\.BUILD\SOURCES\CPP\INCLUDE\WARNINGS.H
D:\XSCRIPT\PROJECTS\TESTINI3\.BUILD\SOURCES\CPP\INCLUDE\WEAKREFOBJECT.H
D:\XSCRIPT\PROJECTS\TESTINI3\.BUILD\SOURCES\CPP\INCLUDE\STRUCTSEQ.H
D:\XSCRIPT\PROJECTS\TESTINI3\.BUILD\SOURCES\CPP\INCLUDE\NAMESPACEOBJECT.H
D:\XSCRIPT\PROJECTS\TESTINI3\.BUILD\SOURCES\CPP\INCLUDE\PICKLEBUFOBJECT.H
D:\XSCRIPT\PROJECTS\TESTINI3\.BUILD\SOURCES\CPP\INCLUDE\CODECS.H
D:\XSCRIPT\PROJECTS\TESTINI3\.BUILD\SOURCES\CPP\INCLUDE\PYERRORS.H
D:\XSCRIPT\PROJECTS\TESTINI3\.BUILD\SOURCES\CPP\INCLUDE\CPYTHON\PYERRORS.H
D:\XSCRIPT\PROJECTS\TESTINI3\.BUILD\SOURCES\CPP\INCLUDE\CONTEXT.H
D:\XSCRIPT\PROJECTS\TESTINI3\.BUILD\SOURCES\CPP\INCLUDE\PYARENA.H
D:\XSCRIPT\PROJECTS\TESTINI3\.BUILD\SOURCES\CPP\INCLUDE\MODSUPPORT.H
D:\XSCRIPT\PROJECTS\TESTINI3\.BUILD\SOURCES\CPP\INCLUDE\COMPILE.H
D:\XSCRIPT\PROJECTS\TESTINI3\.BUILD\SOURCES\CPP\INCLUDE\CODE.H
D:\XSCRIPT\PROJECTS\TESTINI3\.BUILD\SOURCES\CPP\INCLUDE\PYTHONRUN.H
D:\XSCRIPT\PROJECTS\TESTINI3\.BUILD\SOURCES\CPP\INCLUDE\PYLIFECYCLE.H
D:\XSCRIPT\PROJECTS\TESTINI3\.BUILD\SOURCES\CPP\INCLUDE\CPYTHON\PYLIFECYCLE.H
D:\XSCRIPT\PROJECTS\TESTINI3\.BUILD\SOURCES\CPP\INCLUDE\CEVAL.H
D:\XSCRIPT\PROJECTS\TESTINI3\.BUILD\SOURCES\CPP\INCLUDE\SYSMODULE.H
D:\XSCRIPT\PROJECTS\TESTINI3\.BUILD\SOURCES\CPP\INCLUDE\CPYTHON\SYSMODULE.H
D:\XSCRIPT\PROJECTS\TESTINI3\.BUILD\SOURCES\CPP\INCLUDE\OSMODULE.H
D:\XSCRIPT\PROJECTS\TESTINI3\.BUILD\SOURCES\CPP\INCLUDE\INTRCHECK.H
D:\XSCRIPT\PROJECTS\TESTINI3\.BUILD\SOURCES\CPP\INCLUDE\IMPORT.H
D:\XSCRIPT\PROJECTS\TESTINI3\.BUILD\SOURCES\CPP\INCLUDE\ABSTRACT.H
D:\XSCRIPT\PROJECTS\TESTINI3\.BUILD\SOURCES\CPP\INCLUDE\CPYTHON\ABSTRACT.H
D:\XSCRIPT\PROJECTS\TESTINI3\.BUILD\SOURCES\CPP\INCLUDE\BLTINMODULE.H
D:\XSCRIPT\PROJECTS\TESTINI3\.BUILD\SOURCES\CPP\INCLUDE\EVAL.H
D:\XSCRIPT\PROJECTS\TESTINI3\.BUILD\SOURCES\CPP\INCLUDE\PYCTYPE.H
D:\XSCRIPT\PROJECTS\TESTINI3\.BUILD\SOURCES\CPP\INCLUDE\PYSTRTOD.H
D:\XSCRIPT\PROJECTS\TESTINI3\.BUILD\SOURCES\CPP\INCLUDE\PYSTRCMP.H
D:\XSCRIPT\PROJECTS\TESTINI3\.BUILD\SOURCES\CPP\INCLUDE\DTOA.H
D:\XSCRIPT\PROJECTS\TESTINI3\.BUILD\SOURCES\CPP\INCLUDE\FILEUTILS.H
D:\XSCRIPT\PROJECTS\TESTINI3\.BUILD\SOURCES\CPP\INCLUDE\PYFPE.H
D:\XSCRIPT\PROJECTS\TESTINI3\.BUILD\SOURCES\CPP\INCLUDE\TRACEMALLOC.H
D:\XSCRIPT\PROJECTS\TESTINI3\.BUILD\SOURCES\CPP\INCLUDE\FRAMEOBJECT.H
D:\MICROSOFT VISUAL STUDIO19\VC\TOOLS\MSVC\14.24.28314\INCLUDE\FORWARD_LIST
D:\MICROSOFT VISUAL STUDIO19\VC\TOOLS\MSVC\14.24.28314\INCLUDE\UNORDERED_SET
D:\MICROSOFT VISUAL STUDIO19\VC\TOOLS\MSVC\14.24.28314\INCLUDE\TYPEINDEX
D:\XSCRIPT\PROJECTS\TESTINI3\.BUILD\SOURCES\CPP\INCLUDE\PYBIND11\BUFFER_INFO.H
D:\XSCRIPT\PROJECTS\TESTINI3\.BUILD\SOURCES\CPP\INCLUDE\PYBIND11\DETAIL\TYPEID.H
D:\XSCRIPT\PROJECTS\TESTINI3\.BUILD\SOURCES\CPP\INCLUDE\PYBIND11\DETAIL\DESCR.H
D:\XSCRIPT\PROJECTS\TESTINI3\.BUILD\SOURCES\CPP\INCLUDE\PYBIND11\DETAIL\INTERNALS.H
D:\MICROSOFT VISUAL STUDIO19\VC\TOOLS\MSVC\14.24.28314\INCLUDE\ARRAY
D:\MICROSOFT VISUAL STUDIO19\VC\TOOLS\MSVC\14.24.28314\INCLUDE\ALGORITHM
D:\MICROSOFT VISUAL STUDIO19\VC\TOOLS\MSVC\14.24.28314\INCLUDE\ITERATOR
D:\MICROSOFT VISUAL STUDIO19\VC\TOOLS\MSVC\14.24.28314\INCLUDE\STRING_VIEW
D:\XSCRIPT\PROJECTS\TESTINI3\.BUILD\SOURCES\CPP\INCLUDE\PYBIND11\OPTIONS.H
D:\XSCRIPT\PROJECTS\TESTINI3\.BUILD\SOURCES\CPP\INCLUDE\PYBIND11\DETAIL\CLASS.H
D:\XSCRIPT\PROJECTS\TESTINI3\.BUILD\SOURCES\CPP\INCLUDE\PYBIND11\DETAIL\INIT.H
D:\XSCRIPT\PROJECTS\TESTINI3\.BUILD\SOURCES\CPP\INCLUDE\PYBIND11\EMBED.H
D:\XSCRIPT\PROJECTS\TESTINI3\.BUILD\SOURCES\CPP\INCLUDE\PYBIND11\EVAL.H
D:\XSCRIPT\PROJECTS\TESTINI3\.BUILD\SOURCES\CPP\SRC\LANGUAGES\SHARP\SHARPBACKEND.H
D:\MICROSOFT VISUAL STUDIO19\VC\TOOLS\MSVC\14.24.28314\INCLUDE\FUNCTIONAL
D:\XSCRIPT\PROJECTS\TESTINI3\.BUILD\SOURCES\CPP\INCLUDE\MONO\JIT\JIT.H
D:\XSCRIPT\PROJECTS\TESTINI3\.BUILD\SOURCES\CPP\INCLUDE\MONO\METADATA\APPDOMAIN.H
D:\XSCRIPT\PROJECTS\TESTINI3\.BUILD\SOURCES\CPP\INCLUDE\MONO\UTILS\MONO-PUBLIB.H
D:\XSCRIPT\PROJECTS\TESTINI3\.BUILD\SOURCES\CPP\INCLUDE\MONO\UTILS\MONO-FORWARD.H
D:\XSCRIPT\PROJECTS\TESTINI3\.BUILD\SOURCES\CPP\INCLUDE\MONO\METADATA\OBJECT.H
D:\XSCRIPT\PROJECTS\TESTINI3\.BUILD\SOURCES\CPP\INCLUDE\MONO\METADATA\OBJECT-FORWARD.H
D:\XSCRIPT\PROJECTS\TESTINI3\.BUILD\SOURCES\CPP\INCLUDE\MONO\METADATA\CLASS.H
D:\XSCRIPT\PROJECTS\TESTINI3\.BUILD\SOURCES\CPP\INCLUDE\MONO\METADATA\METADATA.H
D:\XSCRIPT\PROJECTS\TESTINI3\.BUILD\SOURCES\CPP\INCLUDE\MONO\METADATA\BLOB.H
D:\XSCRIPT\PROJECTS\TESTINI3\.BUILD\SOURCES\CPP\INCLUDE\MONO\METADATA\ROW-INDEXES.H
D:\XSCRIPT\PROJECTS\TESTINI3\.BUILD\SOURCES\CPP\INCLUDE\MONO\METADATA\IMAGE.H
D:\XSCRIPT\PROJECTS\TESTINI3\.BUILD\SOURCES\CPP\INCLUDE\MONO\UTILS\MONO-ERROR.H
D:\XSCRIPT\PROJECTS\TESTINI3\.BUILD\SOURCES\CPP\INCLUDE\MONO\METADATA\LOADER.H
D:\XSCRIPT\PROJECTS\TESTINI3\.BUILD\SOURCES\CPP\INCLUDE\MONO\METADATA\REFLECTION.H
D:\XSCRIPT\PROJECTS\TESTINI3\.BUILD\SOURCES\CPP\INCLUDE\MONO\METADATA\ASSEMBLY.H
D:\XSCRIPT\PROJECTS\TESTINI3\.BUILD\SOURCES\CPP\INCLUDE\MONO\METADATA\MONO-CONFIG.H
D:\XSCRIPT\PROJECTS\TESTINI3\.BUILD\SOURCES\CPP\INCLUDE\MONO\METADATA\ATTRDEFS.H
D:\XSCRIPT\PROJECTS\TESTINI3\.BUILD\SOURCES\CPP\INCLUDE\MONO\METADATA\MONO-GC.H
D:\XSCRIPT\PROJECTS\TESTINI3\.BUILD\SOURCES\CPP\INCLUDE\MONO\METADATA\THREADS.H
D:\XSCRIPT\PROJECTS\TESTINI3\.BUILD\SOURCES\CPP\INCLUDE\MONO\METADATA\TOKENTYPE.H
D:\XSCRIPT\PROJECTS\TESTINI3\.BUILD\SOURCES\CPP\INCLUDE\MONO\METADATA\DEBUG-HELPERS.H
D:\XSCRIPT\PROJECTS\TESTINI3\.BUILD\SOURCES\CPP\INCLUDE\MONO\UTILS\MONO-LOGGER.H
D:\XSCRIPT\PROJECTS\TESTINI3\.BUILD\SOURCES\CPP\INCLUDE\MONO\METADATA\MONO-DEBUG.H
D:\XSCRIPT\PROJECTS\TESTINI3\.BUILD\SOURCES\CPP\SRC\DYNAMIC\INCL.H
D:\XSCRIPT\PROJECTS\TESTINI3\.BUILD\SOURCES\CPP\SRC\DYNAMIC\PYTHON_FILE.H
D:\XSCRIPT\PROJECTS\TESTINI3\.BUILD\SOURCES\CPP\SRC\DYNAMIC\PYTHONINVOKETEST.H
